Trump tweets
…
It is not surprising that these are the top words. The top words are not informative. The tidytext package has database of these commonly used words, referred to as stop words, in text mining.

stop_words

## # A tibble: 1,149 x 2
##    word        lexicon
##    <chr>       <chr>  
##  1 a           SMART  
##  2 a's         SMART  
##  3 able        SMART  
##  4 about       SMART  
##  5 above       SMART  
##  6 according   SMART  
##  7 accordingly SMART  
##  8 across      SMART  
##  9 actually    SMART  
## 10 after       SMART  
## #  with 1,139 more rows
…
We already see somewhat of a pattern in the types of words that are being tweeted more in one device versus the other. However, we are not interested in specific words but rather in the tone. Vaziris assertion is that the Android tweets are more hyperbolic. So how can we check this with data? Hyperbolic is a hard sentiment to extract from words as it relies on interpreting phrases.

However, words can be associated to more basic sentiment such as as anger, fear, joy and surprise. In the next section we demonstrate basic sentiment analysis. In sentiment analysis we assign a word to one or more sentiment. Although this approach will miss context dependent sentiments, such as sarcasm, when performed on large numbers of words, summaries can provide insights. The first step in sentiment analysis is to assign a sentiment to each word. The tidytext package includes several maps or lexicons in the object sentiments.

sentiments

## # A tibble: 6,786 x 2
##    word        sentiment
##    <chr>       <chr>    
##  1 2-faces     negative 
##  2 abnormal    negative 
##  3 abolish     negative 
##  4 abominable  negative 
##  5 abominably  negative 
##  6 abominate   negative 
##  7 abomination negative 
##  8 abort       negative 
##  9 aborted     negative 
## 10 aborts      negative 
## #  with 6,776 more rows
…
